{
	"info": {
		"_postman_id": "50127ae7-b24a-4cb0-bcd9-b0da6e6e0548",
		"name": "Proyecto Web 1",
		"schema": "https://schema.getpostman.com/json/collection/v2.1.0/collection.json"
	},
	"item": [
		{
			"name": "Services",
			"item": [
				{
					"name": "POST Service",
					"request": {
						"auth": {
							"type": "basic",
							"basic": [
								{
									"key": "username",
									"value": "AC1e9e42a5160785f4fa58fc7f8b638c59",
									"type": "string"
								},
								{
									"key": "password",
									"value": "ff17163d16be2755debe918b926bc59e",
									"type": "string"
								}
							]
						},
						"method": "POST",
						"header": [],
						"body": {
							"mode": "formdata",
							"formdata": [
								{
									"key": "FriendlyName",
									"value": "Prueba",
									"type": "text"
								}
							]
						},
						"url": {
							"raw": "https://chat.twilio.com/v2/Services",
							"protocol": "https",
							"host": [
								"chat",
								"twilio",
								"com"
							],
							"path": [
								"v2",
								"Services"
							]
						}
					},
					"response": []
				},
				{
					"name": "PUT Service",
					"request": {
						"auth": {
							"type": "basic",
							"basic": [
								{
									"key": "username",
									"value": "AC1e9e42a5160785f4fa58fc7f8b638c59",
									"type": "string"
								},
								{
									"key": "password",
									"value": "ff17163d16be2755debe918b926bc59e",
									"type": "string"
								}
							]
						},
						"method": "POST",
						"header": [],
						"body": {
							"mode": "formdata",
							"formdata": [
								{
									"key": "FriendlyName",
									"value": "PruebaCarro",
									"type": "text"
								}
							]
						},
						"url": {
							"raw": "https://chat.twilio.com/v2/Services/IS36f6b291a7a8464e94857c66bbd471e5",
							"protocol": "https",
							"host": [
								"chat",
								"twilio",
								"com"
							],
							"path": [
								"v2",
								"Services",
								"IS36f6b291a7a8464e94857c66bbd471e5"
							]
						}
					},
					"response": []
				},
				{
					"name": "DELETE Service",
					"request": {
						"auth": {
							"type": "basic",
							"basic": [
								{
									"key": "username",
									"value": "AC1e9e42a5160785f4fa58fc7f8b638c59",
									"type": "string"
								},
								{
									"key": "password",
									"value": "ff17163d16be2755debe918b926bc59e",
									"type": "string"
								}
							]
						},
						"method": "DELETE",
						"header": [],
						"body": {
							"mode": "formdata",
							"formdata": []
						},
						"url": {
							"raw": "https://chat.twilio.com/v2/Services/IS36f6b291a7a8464e94857c66bbd471e5",
							"protocol": "https",
							"host": [
								"chat",
								"twilio",
								"com"
							],
							"path": [
								"v2",
								"Services",
								"IS36f6b291a7a8464e94857c66bbd471e5"
							]
						}
					},
					"response": []
				},
				{
					"name": "GET Services",
					"request": {
						"auth": {
							"type": "basic",
							"basic": [
								{
									"key": "username",
									"value": "AC1e9e42a5160785f4fa58fc7f8b638c59",
									"type": "string"
								},
								{
									"key": "password",
									"value": "ff17163d16be2755debe918b926bc59e",
									"type": "string"
								}
							]
						},
						"method": "GET",
						"header": [],
						"url": {
							"raw": "https://chat.twilio.com/v2/Services",
							"protocol": "https",
							"host": [
								"chat",
								"twilio",
								"com"
							],
							"path": [
								"v2",
								"Services"
							]
						}
					},
					"response": []
				}
			],
			"protocolProfileBehavior": {}
		},
		{
			"name": "Channels",
			"item": [
				{
					"name": "GET Channel",
					"request": {
						"auth": {
							"type": "basic",
							"basic": [
								{
									"key": "username",
									"value": "AC1e9e42a5160785f4fa58fc7f8b638c59",
									"type": "string"
								},
								{
									"key": "password",
									"value": "ff17163d16be2755debe918b926bc59e",
									"type": "string"
								}
							]
						},
						"method": "GET",
						"header": [],
						"url": {
							"raw": "https://chat.twilio.com/v2/Services/IS9a72d1ff21b64ad591ac0a53d4e77cd1/Channels",
							"protocol": "https",
							"host": [
								"chat",
								"twilio",
								"com"
							],
							"path": [
								"v2",
								"Services",
								"IS9a72d1ff21b64ad591ac0a53d4e77cd1",
								"Channels"
							]
						}
					},
					"response": []
				},
				{
					"name": "POST Channel",
					"request": {
						"auth": {
							"type": "basic",
							"basic": [
								{
									"key": "username",
									"value": "AC1e9e42a5160785f4fa58fc7f8b638c59",
									"type": "string"
								},
								{
									"key": "password",
									"value": "ff17163d16be2755debe918b926bc59e",
									"type": "string"
								}
							]
						},
						"method": "POST",
						"header": [],
						"body": {
							"mode": "formdata",
							"formdata": [
								{
									"key": "FriendlyName",
									"value": "Carros",
									"type": "text"
								}
							]
						},
						"url": {
							"raw": "https://chat.twilio.com/v2/Services/IS9a72d1ff21b64ad591ac0a53d4e77cd1/Channels",
							"protocol": "https",
							"host": [
								"chat",
								"twilio",
								"com"
							],
							"path": [
								"v2",
								"Services",
								"IS9a72d1ff21b64ad591ac0a53d4e77cd1",
								"Channels"
							]
						}
					},
					"response": []
				},
				{
					"name": "PUT Channel",
					"request": {
						"auth": {
							"type": "basic",
							"basic": [
								{
									"key": "username",
									"value": "AC1e9e42a5160785f4fa58fc7f8b638c59",
									"type": "string"
								},
								{
									"key": "password",
									"value": "ff17163d16be2755debe918b926bc59e",
									"type": "string"
								}
							]
						},
						"method": "POST",
						"header": [],
						"body": {
							"mode": "formdata",
							"formdata": [
								{
									"key": "FriendlyName",
									"value": "PruebaCarro",
									"type": "text"
								}
							]
						},
						"url": {
							"raw": "https://chat.twilio.com/v2/Services/IS9a72d1ff21b64ad591ac0a53d4e77cd1/Channels/CHf17a94d21b9147c1909ecba266960fb9",
							"protocol": "https",
							"host": [
								"chat",
								"twilio",
								"com"
							],
							"path": [
								"v2",
								"Services",
								"IS9a72d1ff21b64ad591ac0a53d4e77cd1",
								"Channels",
								"CHf17a94d21b9147c1909ecba266960fb9"
							]
						}
					},
					"response": []
				},
				{
					"name": "DELETE Channel",
					"request": {
						"auth": {
							"type": "basic",
							"basic": [
								{
									"key": "username",
									"value": "AC1e9e42a5160785f4fa58fc7f8b638c59",
									"type": "string"
								},
								{
									"key": "password",
									"value": "ff17163d16be2755debe918b926bc59e",
									"type": "string"
								}
							]
						},
						"method": "DELETE",
						"header": [],
						"body": {
							"mode": "formdata",
							"formdata": []
						},
						"url": {
							"raw": "https://chat.twilio.com/v2/Services/IS9a72d1ff21b64ad591ac0a53d4e77cd1/Channels/CHf17a94d21b9147c1909ecba266960fb9",
							"protocol": "https",
							"host": [
								"chat",
								"twilio",
								"com"
							],
							"path": [
								"v2",
								"Services",
								"IS9a72d1ff21b64ad591ac0a53d4e77cd1",
								"Channels",
								"CHf17a94d21b9147c1909ecba266960fb9"
							]
						}
					},
					"response": []
				}
			],
			"protocolProfileBehavior": {}
		},
		{
			"name": "Members",
			"item": [
				{
					"name": "GET Member",
					"request": {
						"auth": {
							"type": "basic",
							"basic": [
								{
									"key": "username",
									"value": "AC1e9e42a5160785f4fa58fc7f8b638c59",
									"type": "string"
								},
								{
									"key": "password",
									"value": "ff17163d16be2755debe918b926bc59e",
									"type": "string"
								}
							]
						},
						"method": "GET",
						"header": [],
						"url": {
							"raw": "https://chat.twilio.com/v2/Services/IS9a72d1ff21b64ad591ac0a53d4e77cd1/Channels/CH7269a47920c24acfb2a36f0abcdeaf4d/Members",
							"protocol": "https",
							"host": [
								"chat",
								"twilio",
								"com"
							],
							"path": [
								"v2",
								"Services",
								"IS9a72d1ff21b64ad591ac0a53d4e77cd1",
								"Channels",
								"CH7269a47920c24acfb2a36f0abcdeaf4d",
								"Members"
							]
						}
					},
					"response": []
				},
				{
					"name": "DELETE Member",
					"request": {
						"auth": {
							"type": "basic",
							"basic": [
								{
									"key": "username",
									"value": "AC1e9e42a5160785f4fa58fc7f8b638c59",
									"type": "string"
								},
								{
									"key": "password",
									"value": "ff17163d16be2755debe918b926bc59e",
									"type": "string"
								}
							]
						},
						"method": "DELETE",
						"header": [],
						"body": {
							"mode": "formdata",
							"formdata": []
						},
						"url": {
							"raw": "https://chat.twilio.com/v2/Services/IS9a72d1ff21b64ad591ac0a53d4e77cd1/Channels/CH7269a47920c24acfb2a36f0abcdeaf4d/Members/MBfbae78528ff44483be5202cc5faa7963",
							"protocol": "https",
							"host": [
								"chat",
								"twilio",
								"com"
							],
							"path": [
								"v2",
								"Services",
								"IS9a72d1ff21b64ad591ac0a53d4e77cd1",
								"Channels",
								"CH7269a47920c24acfb2a36f0abcdeaf4d",
								"Members",
								"MBfbae78528ff44483be5202cc5faa7963"
							]
						}
					},
					"response": []
				},
				{
					"name": "PUT Member",
					"request": {
						"auth": {
							"type": "basic",
							"basic": [
								{
									"key": "username",
									"value": "AC1e9e42a5160785f4fa58fc7f8b638c59",
									"type": "string"
								},
								{
									"key": "password",
									"value": "ff17163d16be2755debe918b926bc59e",
									"type": "string"
								}
							]
						},
						"method": "POST",
						"header": [],
						"body": {
							"mode": "formdata",
							"formdata": [
								{
									"key": "Attributes",
									"value": "2",
									"type": "text"
								}
							]
						},
						"url": {
							"raw": "https://chat.twilio.com/v2/Services/IS9a72d1ff21b64ad591ac0a53d4e77cd1/Channels/CH7269a47920c24acfb2a36f0abcdeaf4d/Members/MBfbae78528ff44483be5202cc5faa7963",
							"protocol": "https",
							"host": [
								"chat",
								"twilio",
								"com"
							],
							"path": [
								"v2",
								"Services",
								"IS9a72d1ff21b64ad591ac0a53d4e77cd1",
								"Channels",
								"CH7269a47920c24acfb2a36f0abcdeaf4d",
								"Members",
								"MBfbae78528ff44483be5202cc5faa7963"
							]
						}
					},
					"response": []
				},
				{
					"name": "POST Member",
					"request": {
						"auth": {
							"type": "basic",
							"basic": [
								{
									"key": "username",
									"value": "AC1e9e42a5160785f4fa58fc7f8b638c59",
									"type": "string"
								},
								{
									"key": "password",
									"value": "ff17163d16be2755debe918b926bc59e",
									"type": "string"
								}
							]
						},
						"method": "POST",
						"header": [],
						"body": {
							"mode": "formdata",
							"formdata": [
								{
									"key": "Identity",
									"value": "MANOLO",
									"type": "text"
								},
								{
									"key": "Attributes",
									"value": "1",
									"type": "text"
								}
							]
						},
						"url": {
							"raw": "https://chat.twilio.com/v2/Services/IS9a72d1ff21b64ad591ac0a53d4e77cd1/Channels/CH7269a47920c24acfb2a36f0abcdeaf4d/Members",
							"protocol": "https",
							"host": [
								"chat",
								"twilio",
								"com"
							],
							"path": [
								"v2",
								"Services",
								"IS9a72d1ff21b64ad591ac0a53d4e77cd1",
								"Channels",
								"CH7269a47920c24acfb2a36f0abcdeaf4d",
								"Members"
							]
						}
					},
					"response": []
				}
			],
			"protocolProfileBehavior": {}
		},
		{
			"name": "Messages",
			"item": [
				{
					"name": "GET Messages",
					"request": {
						"auth": {
							"type": "basic",
							"basic": [
								{
									"key": "username",
									"value": "AC1e9e42a5160785f4fa58fc7f8b638c59",
									"type": "string"
								},
								{
									"key": "password",
									"value": "ff17163d16be2755debe918b926bc59e",
									"type": "string"
								}
							]
						},
						"method": "GET",
						"header": [],
						"url": {
							"raw": "https://chat.twilio.com/v2/Services/IS9a72d1ff21b64ad591ac0a53d4e77cd1/Channels/CH7269a47920c24acfb2a36f0abcdeaf4d/Messages",
							"protocol": "https",
							"host": [
								"chat",
								"twilio",
								"com"
							],
							"path": [
								"v2",
								"Services",
								"IS9a72d1ff21b64ad591ac0a53d4e77cd1",
								"Channels",
								"CH7269a47920c24acfb2a36f0abcdeaf4d",
								"Messages"
							]
						}
					},
					"response": []
				},
				{
					"name": "DELETE Messages",
					"request": {
						"auth": {
							"type": "basic",
							"basic": [
								{
									"key": "username",
									"value": "AC1e9e42a5160785f4fa58fc7f8b638c59",
									"type": "string"
								},
								{
									"key": "password",
									"value": "ff17163d16be2755debe918b926bc59e",
									"type": "string"
								}
							]
						},
						"method": "DELETE",
						"header": [],
						"body": {
							"mode": "formdata",
							"formdata": []
						},
						"url": {
							"raw": "https://chat.twilio.com/v2/Services/IS9a72d1ff21b64ad591ac0a53d4e77cd1/Channels/CH7269a47920c24acfb2a36f0abcdeaf4d/Messages/IMb9ee711a1f764769a4a7851de7e852ed",
							"protocol": "https",
							"host": [
								"chat",
								"twilio",
								"com"
							],
							"path": [
								"v2",
								"Services",
								"IS9a72d1ff21b64ad591ac0a53d4e77cd1",
								"Channels",
								"CH7269a47920c24acfb2a36f0abcdeaf4d",
								"Messages",
								"IMb9ee711a1f764769a4a7851de7e852ed"
							]
						}
					},
					"response": []
				},
				{
					"name": "PUT Messages",
					"request": {
						"auth": {
							"type": "basic",
							"basic": [
								{
									"key": "username",
									"value": "AC1e9e42a5160785f4fa58fc7f8b638c59",
									"type": "string"
								},
								{
									"key": "password",
									"value": "ff17163d16be2755debe918b926bc59e",
									"type": "string"
								}
							]
						},
						"method": "POST",
						"header": [],
						"body": {
							"mode": "formdata",
							"formdata": [
								{
									"key": "Body",
									"value": "Hola PAPA",
									"type": "text"
								}
							]
						},
						"url": {
							"raw": "https://chat.twilio.com/v2/Services/IS9a72d1ff21b64ad591ac0a53d4e77cd1/Channels/CH7269a47920c24acfb2a36f0abcdeaf4d/Messages/IMb9ee711a1f764769a4a7851de7e852ed",
							"protocol": "https",
							"host": [
								"chat",
								"twilio",
								"com"
							],
							"path": [
								"v2",
								"Services",
								"IS9a72d1ff21b64ad591ac0a53d4e77cd1",
								"Channels",
								"CH7269a47920c24acfb2a36f0abcdeaf4d",
								"Messages",
								"IMb9ee711a1f764769a4a7851de7e852ed"
							]
						}
					},
					"response": []
				},
				{
					"name": "POST Messages",
					"request": {
						"auth": {
							"type": "basic",
							"basic": [
								{
									"key": "username",
									"value": "AC1e9e42a5160785f4fa58fc7f8b638c59",
									"type": "string"
								},
								{
									"key": "password",
									"value": "ff17163d16be2755debe918b926bc59e",
									"type": "string"
								}
							]
						},
						"method": "POST",
						"header": [],
						"body": {
							"mode": "formdata",
							"formdata": [
								{
									"key": "From",
									"value": "PEPE",
									"type": "text"
								},
								{
									"key": "Body",
									"value": "Hola Mundo",
									"type": "text"
								}
							]
						},
						"url": {
							"raw": "https://chat.twilio.com/v2/Services/IS9a72d1ff21b64ad591ac0a53d4e77cd1/Channels/CH7269a47920c24acfb2a36f0abcdeaf4d/Messages",
							"protocol": "https",
							"host": [
								"chat",
								"twilio",
								"com"
							],
							"path": [
								"v2",
								"Services",
								"IS9a72d1ff21b64ad591ac0a53d4e77cd1",
								"Channels",
								"CH7269a47920c24acfb2a36f0abcdeaf4d",
								"Messages"
							]
						}
					},
					"response": []
				}
			],
			"protocolProfileBehavior": {}
		}
	],
	"auth": {
		"type": "basic",
		"basic": [
			{
				"key": "username",
				"value": "AC1e9e42a5160785f4fa58fc7f8b638c59",
				"type": "string"
			},
			{
				"key": "password",
				"value": "ff17163d16be2755debe918b926bc59e",
				"type": "string"
			}
		]
	},
	"protocolProfileBehavior": {}
}